COST
---------------------------------------------
FERRARI        360MODENA      $138225.00
PORSCHE        911GT2         $179900.00
MITSUBISHI     ECLIPSE        $21000.00
TOYOTA         CELICA         $21650.00
LAMBORGHINI    DIABLOGT       $350000.00
INNOTECH       MYSTERRO       $100000.00
MCLAREN        F1             $1070000.00
AUDI           TT             $30500.00
VECTOR         M12            $184000.00
SHELBY         SERIES1        $106975.00
Total Cost: 2202250
Avg. Cost: 220225
